%YAML 1.1
%TAG !u! tag:unity3d.com,2011:
--- !u!114 &11400000
MonoBehaviour:
  m_ObjectHideFlags: 0
  m_CorrespondingSourceObject: {fileID: 0}
  m_PrefabInstance: {fileID: 0}
  m_PrefabAsset: {fileID: 0}
  m_GameObject: {fileID: 0}
  m_Enabled: 1
  m_EditorHideFlags: 0
  m_Script: {fileID: 11500000, guid: ea09c66032b4ddb44ae84904d0471674, type: 3}
  m_Name: Color Palette
  m_EditorClassIdentifier: 
  Colors:
  - {r: 0.9137255, g: 0.79607844, b: 0.6627451, a: 1}
  - {r: 0.9333334, g: 0.8235295, b: 0.7176471, a: 1}
  - {r: 0.9686275, g: 0.86666673, b: 0.7607844, a: 1}
  - {r: 0.9686275, g: 0.8862746, b: 0.67058825, a: 1}
  - {r: 0.9333334, g: 0.77647066, b: 0.5803922, a: 1}
  - {r: 0.94117653, g: 0.7490196, b: 0.5294118, a: 1}
  - {r: 0.8980393, g: 0.73333335, b: 0.5686275, a: 1}
  - {r: 0.92549026, g: 0.7490196, b: 0.5176471, a: 1}
  - {r: 0.8117648, g: 0.6156863, b: 0.4784314, a: 1}
  - {r: 0.8000001, g: 0.58431375, b: 0.38823533, a: 1}
  - {r: 0.6745098, g: 0.5411765, b: 0.3921569, a: 1}
  - {r: 0.5803922, g: 0.37647063, b: 0.23137257, a: 1}
  - {r: 0.5372549, g: 0.32941177, b: 0.20392159, a: 1}
  - {r: 0.47058827, g: 0.26666668, b: 0.121568635, a: 1}
  - {r: 0.6901961, g: 0.41176474, b: 0.28627452, a: 1}
  - {r: 0.49803925, g: 0.28235295, b: 0.15686275, a: 1}
  - {r: 0.38431376, g: 0.227451, b: 0.09019608, a: 1}
  - {r: 0.19607845, g: 0.121568635, b: 0.06666667, a: 1}
