{
    "name": "Multiplayer",
    "references": [
        "GUID:5bb5af6fa4fc5914790d50b382a604d9",
        "GUID:6136f1b537800354fad67b80d0968022",
        "GUID:3148392c6a8b1dd478ae97dbb199cb0a",
        "GUID:cb0bead07432e6b4c857ec94b44ac591"
    ],
    "includePlatforms": [],
    "excludePlatforms": [],
    "allowUnsafeCode": false,
    "overrideReferences": false,
    "precompiledReferences": [],
    "autoReferenced": true,
    "defineConstraints": [],
    "versionDefines": [],
    "noEngineReferences": false
}